<svg xmlns="http://www.w3.org/2000/svg" xmlns:xlink="http://www.w3.org/1999/xlink" width="27" height="26" viewBox="0 0 27 26">
  <defs>
    <clipPath id="clip-mail">
      <rect width="27" height="26"/>
    </clipPath>
  </defs>
  <g id="mail" clip-path="url(#clip-mail)">
    <path id="mail-2" data-name="mail" d="M24.292,28.85H2.608A2.53,2.53,0,0,0,.106,31.4V46.707a2.53,2.53,0,0,0,2.5,2.551H24.292a2.53,2.53,0,0,0,2.5-2.551V31.4A2.53,2.53,0,0,0,24.292,28.85Zm0,1.7a.814.814,0,0,1,.32.066L13.45,40.48,2.288,30.616a.815.815,0,0,1,.32-.066Zm0,17.007H2.608a.843.843,0,0,1-.834-.85V32.413L12.9,42.248a.823.823,0,0,0,1.093,0l11.13-9.835V46.707A.843.843,0,0,1,24.292,47.558Z" transform="translate(-0.106 -26.054)" fill="#004aad"/>
  </g>
</svg>
