<svg xmlns="http://www.w3.org/2000/svg" width="18" height="18" viewBox="0 0 18 18">
  <g id="navigation-circle" transform="translate(18 18) rotate(180)" fill="#fff" stroke="#004aad" stroke-width="3">
    <circle cx="9" cy="9" r="9" stroke="none"/>
    <circle cx="9" cy="9" r="7.5" fill="none"/>
  </g>
</svg>
