<svg xmlns="http://www.w3.org/2000/svg" xmlns:xlink="http://www.w3.org/1999/xlink" width="31" height="30" viewBox="0 0 31 30">
  <defs>
    <filter id="Ellipse_29" x="-6" y="-3" width="43" height="43" filterUnits="userSpaceOnUse">
      <feOffset dy="3" input="SourceAlpha"/>
      <feGaussianBlur stdDeviation="3" result="blur"/>
      <feFlood flood-opacity="0.161"/>
      <feComposite operator="in" in2="blur"/>
      <feComposite in="SourceGraphic"/>
    </filter>
    <clipPath id="clip-tick-icon">
      <rect width="31" height="30"/>
    </clipPath>
  </defs>
  <g id="tick-icon" clip-path="url(#clip-tick-icon)">
    <g id="tick" transform="translate(-547.896 -2239)">
      <g transform="matrix(1, 0, 0, 1, 547.9, 2239)" filter="url(#Ellipse_29)">
        <g id="Ellipse_29-2" data-name="Ellipse 29" transform="translate(3 3)" fill="#fff" stroke="#d5c195" stroke-width="1">
          <circle cx="12.5" cy="12.5" r="12.5" stroke="none"/>
          <circle cx="12.5" cy="12.5" r="12" fill="none"/>
        </g>
      </g>
      <path id="Path_25930" data-name="Path 25930" d="M-14526.937,1522.756l3.336,3.68,7.938-7" transform="translate(15084.696 732.064)" fill="none" stroke="#5d2468" stroke-linecap="round" stroke-width="2"/>
    </g>
  </g>
</svg>
